[0530/165949.657:ERROR:crash_report_database_win.cc(428)] unexpected header
[0531/090926.356:ERROR:crash_report_database_win.cc(428)] unexpected header
[0605/092604.498:ERROR:crash_report_database_win.cc(428)] unexpected header
[0606/154642.235:ERROR:crash_report_database_win.cc(428)] unexpected header
[0606/155430.313:ERROR:crash_report_database_win.cc(428)] unexpected header
